<Sentence id='1'>
1	((	NP	<fs posn='50' head='नकवी' name='NP' af='नकवी,n,m,sg,3,o,0_ने,0' drel='k1:VGF' ana_antId='1' vpos='vib5_6' semprop='rest'>
1.1	भाजपा	NNP	<fs posn='10' name='BAjapA' af='भाजपा,n,f,sg,3,d,0,0'>
1.2	उपाध्यक्ष	NN	<fs posn='20' name='upAXyakRa' af='उपाध्यक्ष,n,m,sg,3,d,0,0'>
1.3	मुख्तार	NNPC	<fs posn='30' name='muKwAra' af='मुख्तार,n,m,sg,3,d,0,0'>
1.4	अब्बास	NNPC	<fs posn='40' name='abbAsa' af='अब्बास,n,m,sg,3,d,0,0'>
1.5	नकवी	NNP	<fs posn='50' name='nakavI' af='नकवी,n,m,sg,3,o,0,0'>
	))
2	((	VGF	<fs posn='70' head='कहा' name='VGF' af='कह,v,m,sg,any,,या,yA' voicetype='active' stype='declarative'>
2.1	कहा	VM	<fs posn='70' name='kahA' af='कह,v,m,sg,any,,या,yA'>
	))
3	((	CCP	<fs posn='80' head='कि' af='कि,avy,,,,,,' drel='k2:VGF' name='CCP'>
3.1	कि	CC	<fs posn='80' name='ki' af='कि,avy,,,,,,'>
	))
4	((	NP	<fs posn='90' head='अब' name='NP2' af='अब,pn,,,,o,0_तक,' drel='k7t:VGF2' vpos='vib1_2' semprop='rest'>
4.1	अब	PRP	<fs posn='90' name='aba' af='अब,pn,,,,o,,'>
	))
5	((	NP	<fs posn='120' head='राजनीति' name='NP3' af='राजनीति,n,f,sg,3,o,0_में,0' drel='k7:VGF2' vpos='vib2_3' semprop='rest'>
5.1	भारतीय	JJ	<fs posn='110' name='BArawIya' af='भारतीय,adj,any,any,,o,,'>
5.2	राजनीति	NN	<fs posn='120' name='rAjanIwi' af='राजनीति,n,f,sg,3,o,0,0'>
	))
6	((	NP	<fs posn='140' head='यह' semprop='rest' af='यह,n,m,sg,3,o,0_ने,0' refroot='नकवी' refhead='नकवी'  anaId='1' drel='k1s:VGF2' name='NP4'>
6.1	यह	PRP	<fs posn='140' name='yaha' af='यह,n,m,sg,3,o,0_ने,0' refroot='नकवी' refhead='नकवी' >
	))
7	((	NP	<fs posn='160' head='परंपरा' semprop='rest' af='परंपरा,n,f,sg,3,d,0,0' drel='k1s:VGF2' name='NP5'>
7.1	स्वस्थ	JJ	<fs posn='150' name='svasWa' af='स्वस्थ,adj,any,any,,d,,'>
7.2	परंपरा	NN	<fs posn='160' name='paraMparA' af='परंपरा,n,f,sg,3,d,0,0'>
	))
8	((	VGF	<fs posn='170' head='रही' name='VGF2' af='रह,v,f,sg,3,,या_है,yA' drel='ccof:CCP2' voicetype='active' vpos='tam1_2' stype='declarative'>
8.1	रही	VM	<fs posn='170' name='rahI' af='रह,v,f,sg,any,,या,yA'>
	))
9	((	CCP	<fs posn='190' head='कि2' af='कि,avy,,,,,,' drel='ccof:CCP' name='CCP2'>
9.1	कि	CC	<fs posn='190' name='ki2' af='कि,avy,,,,,,'>
	))
10	((	NP	<fs posn='220' head='नेता' semprop='rest' af='नेता,n,m,sg,3,d,0,0' drel='k1:VGF3' name='NP6'>
10.1	कोई	PRP	<fs posn='200' name='koI' af='कोई,pn,any,sg,3,d,0,0'>
10.2	भी	RP	<fs posn='210' name='BI' af='भी,avy,,,,,,'>
10.3	नेता	NN	<fs posn='220' name='newA' af='नेता,n,m,sg,3,d,0,0'>
	))
11	((	NP	<fs posn='230' head='विदेश' name='NP7' af='विदेश,n,m,sg,3,o,0_में,0' drel='k7:VGF3' vpos='vib1_2' semprop='rest'>
11.1	विदेश	NN	<fs posn='230' name='vixeSa' af='विदेश,n,m,sg,3,o,0,0'>
	))
12	((	NP	<fs posn='270' head='मुद्दों' name='NP8' af='मुद्दा,n,m,pl,3,o,0_को,0' drel='k2:VGF3' vpos='vib3_4' semprop='rest'>
12.1	घरेलू	JJ	<fs posn='250' name='GarelU' af='घरेलू,adj,any,any,,o,,'>
12.2	राजनीतिक	JJ	<fs posn='260' name='rAjanIwika' af='राजनीतिक,adj,any,any,,o,,'>
12.3	मुद्दों	NN	<fs posn='270' name='muxxoM' af='मुद्दा,n,m,pl,3,o,0,0'>
	))
13	((	VGF	<fs posn='300' head='उठाता' name='VGF3' af='उठा,v,m,sg,3,,ता_है,wA' drel='ccof:CCP2' voicetype='active' vpos='tam2_3' stype='declarative'>
13.1	नहीं	NEG	<fs posn='290' name='nahIM' af='नहीं,avy,,,,,,'>
13.2	उठाता	VM	<fs posn='300' name='uTAwA' af='उठा,v,m,sg,any,,ता,wA'>
	))
14	((	BLK	<fs posn='320' head='.' af='.,punc,,,,,,' drel='rsym:VGF' name='BLK'>
14.1	.	SYM	<fs posn='320' name='.' af='.,punc,,,,,,'>
	))
</Sentence>

