<Sentence id='1'>
1	((	NP	<fs posn='10' head='आज़ाद' name='NP' af='आजाद,n,m,sg,3,o,0_का,0' drel='k1:VGNN' ana_antId='1' vpos='vib1_2' semprop='rest'>
1.1	आज़ाद	NNP	<fs posn='10' name='AjZAxa' af='आजाद,n,m,sg,3,o,0,0'>
	))
2	((	VGNN	<fs posn='30' head='कहना' af='कह,v,any,any,any,d,ना,nA' drel='k1:VGNN' name='VGNN'>
2.1	कहना	VM	<fs posn='30' name='kahanA' af='कह,v,any,any,any,d,ना,nA'>
	))
3	((	VGF	<fs posn='40' head='है' name='VGF' af='है,v,any,sg,3,,है,hE' voicetype='active' stype='declarative'>
3.1	है	VM	<fs posn='40' name='hE' af='है,v,any,sg,3,,है,hE'>
	))
4	((	CCP	<fs posn='50' head='कि' af='कि,avy,,,,,,' drel='k2:VGNN' name='CCP'>
4.1	कि	CC	<fs posn='50' name='ki' af='कि,avy,,,,,,'>
	))
5	((	NP	<fs posn='60' head='घाटी' name='NP2' af='घाटी,n,f,sg,3,o,0_में,0' drel='k7p:JJP' vpos='vib1_2' semprop='rest'>
5.1	घाटी	NN	<fs posn='60' name='GAtI' af='घाटी,n,f,sg,3,o,0,0'>
	))
6	((	NP	<fs posn='80' head='अमल' semprop='rest' af='अमल,n,m,sg,3,d,0,0' drel='k2:JJP' name='NP3'>
6.1	अमल	NN	<fs posn='80' name='amala' af='अमल,n,m,sg,3,d,0,0'>
	))
7	((	JJP	<fs posn='90' head='बहाल' af='बहाल,adj,any,any,,,,' drel='pof:JJP' name='JJP'>
7.1	बहाल	JJ	<fs posn='90' name='bahAla' af='बहाल,adj,any,any,,,,'>
	))
8	((	VGNN	<fs posn='100' head='करना' af='कर,v,any,any,any,d,ना,nA' drel='k1:NP5' name='VGNN2'>
8.1	करना	VM	<fs posn='100' name='karanA' af='कर,v,any,any,any,d,ना,nA'>
	))
9	((	NP	<fs posn='110' head='उनके' name='NP4' af='वह,pn,m,sg,3h,o,के_लिए,ke' drel='k7:NP5' ana_antId='2' vpos='vib1_2' semprop='h'>
9.1	उनके	PRP	<fs posn='110' name='unake' af='वह,pn,m,sg,3h,o,के,ke'>
	))
10	((	NP	<fs posn='140' head='चुनौती' semprop='rest' af='चुनौती,n,f,sg,3,d,0,0' drel='k1s:NP5' name='NP5'>
10.1	बड़ी	JJ	<fs posn='130' name='badZI' af='बड़ा,adj,f,sg,,d,,'>
10.2	चुनौती	NN	<fs posn='140' name='cunOwI' af='चुनौती,n,f,sg,3,d,0,0'>
	))
11	((	VGF	<fs posn='150' head='है2' name='VGF2' af='है,v,any,sg,3,,है,hE' drel='ccof:VGF2' voicetype='active' stype='declarative'>
11.1	है	VM	<fs posn='150' name='hE2' af='है,v,any,sg,3,,है,hE'>
	))
12	((	CCP	<fs posn='160' head='और' af='और,avy,,,,,,' drel='ccof:VGF' name='CCP2'>
12.1	और	CC	<fs posn='160' name='Ora' af='और,avy,,,,,,'>
	))
13	((	NP	<fs posn='170' head='इसके' name='NP6' af='यह,n,m,sg,3,o,0_का,0' refroot='आजाद' refhead='आज़ाद'  anaId='1' drel='vmod:NP9' vpos='vib1_2' semprop='rest'>
13.1	इसके	PRP	<fs posn='170' name='isake' af='यह,n,m,sg,3,o,0_का,0' refroot='आजाद' refhead='आज़ाद' >
	))
14	((	NP	<fs posn='190' head='वह' semprop='h' af='वह,pn,m,sg,3h,o,के_लिए,ke' refroot='वह' refhead='उनके'  anaId='2' drel='k1:NP9' name='NP7'>
14.1	वह	PRP	<fs posn='190' name='vaha' af='वह,pn,m,sg,3h,o,के_लिए,ke' refroot='वह' refhead='उनके' >
	))
15	((	JJP	<fs posn='200' head='सियासी' af='सियासी,adj,any,any,,o,,' drel='ccof:JJP2' name='JJP2'>
15.1	सियासी	JJ	<fs posn='200' name='siyAsI' af='सियासी,adj,any,any,,o,,'>
	))
16	((	CCP	<fs posn='210' head='व' af='व,avy,,,,,,' drel='nmod:JJP3' name='CCP3'>
16.1	व	CC	<fs posn='210' name='va' af='व,avy,,,,,,'>
	))
17	((	JJP	<fs posn='230' head='सियासी2' af='सियासी,adj,any,any,,o,,' drel='ccof:JJP2' name='JJP3'>
17.1	गैर	JJC	<fs posn='220' name='gEra' af='गैर,adj,any,any,,,,'>
17.2	सियासी	JJ	<fs posn='230' name='siyAsI2' af='सियासी,adj,any,any,,o,,'>
	))
18	((	NP	<fs posn='240' head='पार्टियों' name='NP8' af='पार्टी,n,f,pl,3,o,0_का,0' drel='r6:NP8' vpos='vib1_2' semprop='rest'>
18.1	पार्टियों	NN	<fs posn='240' name='pArtiyoM' af='पार्टी,n,f,pl,3,o,0,0'>
	))
19	((	NP	<fs posn='260' head='सहयोग' semprop='rest' af='सहयोग,n,m,sg,3,d,0,0' drel='k2:NP9' name='NP9'>
19.1	सहयोग	NN	<fs posn='260' name='sahayoga' af='सहयोग,n,m,sg,3,d,0,0'>
	))
20	((	VGF	<fs posn='270' head='लेंगे' name='VGF3' af='ले,v,m,sg,3h,,गा,gA' drel='ccof:VGF2' voicetype='active' stype='declarative'>
20.1	लेंगे	VM	<fs posn='270' name='leMge' af='ले,v,m,sg,3h,,गा,gA'>
	))
21	((	BLK	<fs posn='280' head='.' af='.,punc,,,,,,' drel='rsym:VGNN' name='BLK'>
21.1	.	SYM	<fs posn='280' name='.' af='.,punc,,,,,,'>
	))
</Sentence>

