<Sentence id='1'>
1	((	NP	<fs posn='20' head='मंडलों' name='NP' af='मंडल,n,m,pl,3,o,0_को,0' drel='k2:VGNN' vpos='vib2_3_RP' semprop='rest'>
1.1	गणेश	NNP	<fs posn='10' name='gaNeSa' af='गणेश,n,m,sg,3,d,0,0'>
1.2	मंडलों	NN	<fs posn='20' name='maMdaloM' af='मंडल,n,m,pl,3,o,0,0'>
1.3	भी	RP	<fs posn='40' name='BI' af='भी,avy,,,,,,'>
	))
2	((	NP	<fs posn='60' head='कोर्ट' name='NP2' af='कोर्ट,n,f,sg,3,o,0_का,0' drel='r6:NP3' vpos='vib2_3' semprop='rest'>
2.1	सुप्रीम	NNPC	<fs posn='50' name='suprIma' af='सुप्रीम,n,m,sg,3,d,0,0'>
2.2	कोर्ट	NNP	<fs posn='60' name='korta' af='कोर्ट,n,f,sg,3,o,0,0'>
	))
3	((	NP	<fs posn='100' head='निर्देशों' name='NP3' af='निर्देश,n,m,pl,3,o,0_का,0' drel='r6-k2:NP4' vpos='vib3_4' semprop='rest'>
3.1	दिशा	NNC	<fs posn='80' name='xiSA' af='दिशा,n,f,sg,3,d,0,0'>
3.2	-	SYM	<fs posn='90' name='-' af='-,punc,,,,,,'>
3.3	निर्देशों	NN	<fs posn='100' name='nirxeSoM' af='निर्देश,n,m,pl,3,o,0,0'>
	))
4	((	NP	<fs posn='120' head='पालन' semprop='rest' af='पालन,n,m,sg,3,d,0,0' drel='pof:VGNN' name='NP4'>
4.1	पालन	NN	<fs posn='120' name='pAlana' af='पालन,n,m,sg,3,d,0,0'>
	))
5	((	VGNN	<fs posn='130' head='करने' name='VGNN' af='कर,v,any,any,any,o,ना_के_लिए,nA' drel='rt:VGF' vpos='tam1_2_3'>
5.1	करने	VM	<fs posn='130' name='karane' af='कर,v,any,any,any,o,ना,nA'>
	))
6	((	JJP	<fs posn='160' head='रजामंद' af='रजामंद,adj,any,any,,,,' drel='pof:VGF' name='JJP'>
6.1	रजामंद	JJ	<fs posn='160' name='rajAmaMxa' af='रजामंद,adj,any,any,,,,'>
	))
7	((	VGF	<fs posn='170' head='कर' name='VGF' af='कर,v,m,sg,3,,0_ले+या_जा+या1_है,0' voicetype='passive' vpos='tam1_2_3_4' stype='declarative'>
7.1	कर	VM	<fs posn='170' name='kara' af='कर,v,any,any,any,,0,0'>
	))
8	((	BLK	<fs posn='210' head='.' af='.,punc,,,,,,' drel='rsym:VGF' name='BLK'>
8.1	.	SYM	<fs posn='210' name='.' af='.,punc,,,,,,'>
	))
</Sentence>

