<Sentence id='1'>
1	((	NP	<fs posn='10' head='भाजपा' name='NP' af='भाजपा,n,f,sg,3,o,0_पर,0' drel='k7:VGNF' ana_antId='1' vpos='vib1_2' semprop='rest'>
1.1	भाजपा	NNP	<fs posn='10' name='BAjapA' af='भाजपा,n,f,sg,3,o,0,0'>
	))
2	((	NP	<fs posn='30' head='उंगली' semprop='rest' af='उंगली,n,f,sg,3,d,0,0' drel='pof:VGNF' name='NP2'>
2.1	उंगली	NN	<fs posn='30' name='uMgalI' af='उंगली,n,f,sg,3,d,0,0'>
	))
3	((	VGNF	<fs posn='40' head='उठाते' name='VGNF' af='उठा,v,m,sg,any,,ता_हो+या,wA' drel='vmod:VGF' vpos='tam1_2'>
3.1	उठाते	VM	<fs posn='40' name='uTAwe' af='उठा,v,m,sg,any,,ता,wA'>
	))
4	((	NP	<fs posn='60' head='वैद्य' name='NP3' af='वैद्य,n,any,sg,3,o,0_ने,0' drel='k1:VGF' vpos='vib1_2' semprop='rest'>
4.1	वैद्य	NNP	<fs posn='60' name='vExya' af='वैद्य,n,any,sg,3,o,0,0'>
	))
5	((	VGF	<fs posn='80' head='कहा' name='VGF' af='कह,v,m,sg,any,,या,yA' voicetype='active' stype='declarative'>
5.1	कहा	VM	<fs posn='80' name='kahA' af='कह,v,m,sg,any,,या,yA'>
	))
6	((	CCP	<fs posn='90' head='कि' af='कि,avy,,,,,,' drel='k2:VGF' name='CCP'>
6.1	कि	CC	<fs posn='90' name='ki' af='कि,avy,,,,,,'>
	))
7	((	NP	<fs posn='100' head='जो' name='NP4' af='जो,n,f,sg,3,o,0_पर,0' refroot='भाजपा' refhead='भाजपा'  coref='NP10' anaId='1' drel='k1:VGF2' semprop='rest'>
7.1	जो	PRP	<fs posn='100' name='jo' af='जो,n,f,sg,3,o,0_पर,0' refroot='भाजपा' refhead='भाजपा' >
	))
8	((	NP	<fs posn='110' head='उनके' name='NP5' af='वह,pn,m,sg,3h,o,का,kA' drel='r6:NP6' ana_antId='2' vpos='vib1' semprop='h'>
8.1	उनके	PRP	<fs posn='110' name='unake' af='वह,pn,m,sg,3h,o,का,kA'>
	))
9	((	NP	<fs posn='120' head='इस्तीफे' name='NP6' af='इस्तीफा,n,m,sg,3,o,0_का,0' drel='r6:NP7' vpos='vib1_2' semprop='rest'>
9.1	इस्तीफे	NN	<fs posn='120' name='iswIPe' af='इस्तीफा,n,m,sg,3,o,0,0'>
	))
10	((	NP	<fs posn='140' head='नाटक' semprop='rest' af='नाटक,n,m,sg,3,d,0,0' drel='k2:VGF2' name='NP7'>
10.1	नाटक	NN	<fs posn='140' name='nAtaka' af='नाटक,n,m,sg,3,d,0,0'>
	))
11	((	NP	<fs posn='150' head='करार' semprop='rest' af='करार,n,m,sg,3,d,0,0' drel='pof:VGF2' name='NP8'>
11.1	करार	NN	<fs posn='150' name='karAra' af='करार,n,m,sg,3,d,0,0'>
	))
12	((	VGF	<fs posn='160' head='दे' name='VGF2' af='दे,v,m,sg,3h,,0_रह+या_है,0' drel='vmod:VGF3' voicetype='active' vpos='tam1_2_3' stype='declarative'>
12.1	दे	VM	<fs posn='160' name='xe' af='दे,v,any,any,any,,0,0'>
12.2	,	SYM	<fs posn='190' name=',' af=',punc,,,,,,'>
	))
13	((	NP	<fs posn='200' head='पहले' semprop='rest' af='पहला,nst,m,sg,3,d,,' drel='k7t:VGF3' name='NP9'>
13.1	पहले	NST	<fs posn='200' name='pahale' af='पहला,nst,m,sg,3,d,,'>
	))
14	((	NP	<fs posn='210' head='उन्हें' name='NP10' af='वह,pn,m,sg,3h,o,का,kA' refroot='वह' refhead='उनके'  anaId='2' drel='k1:VGF3' ana_antId='3' vpos='vib1' semprop='h'>
14.1	उन्हें	PRP	<fs posn='210' name='unheM' af='वह,pn,m,sg,3h,o,का,kA' refroot='वह' refhead='उनके' >
	))
15	((	NP	<fs posn='20' head='खुद' semprop='h' af='खुद,pn,m,sg,3h,o,का,kA' refroot='वह' refhead='उनके'  anaId='3' drel='k7p:VGF3' name='NP11'>
15.1	खुद	PRP	<fs posn='20' name='Kuxa' af='खुद,pn,m,sg,3h,o,का,kA' refroot='वह' refhead='उनके' >
	))
16	((	NP	<fs posn='230' head='इस्तीफा' semprop='rest' af='इस्तीफा,n,m,sg,3,d,0,0' drel='k2:VGF3' name='NP12'>
16.1	इस्तीफा	NN	<fs posn='230' name='iswIPA' af='इस्तीफा,n,m,sg,3,d,0,0'>
	))
17	((	VGF	<fs posn='240' head='देना' name='VGF3' af='दे,v,any,any,any,,ना_चाहिए,nA' drel='ccof:CCP' voicetype='active' vpos='tam1_2' stype='declarative'>
17.1	देना	VM	<fs posn='240' name='xenA' af='दे,v,any,sg,any,,ना,nA'>
	))
18	((	BLK	<fs posn='260' head='.' af='.,punc,,,,,,' drel='rsym:VGF' name='BLK'>
18.1	.	SYM	<fs posn='260' name='.' af='.,punc,,,,,,'>
	))
</Sentence>

