<Sentence id='1'>
1	((	NP	<fs posn='20' head='सांसद' semprop='rest' af='सांसद,n,m,pl,3,d,0,0' drel='k1:VGF' name='NP'>
1.1	राजग	NNP	<fs posn='10' name='rAjaga' af='राजग,n,m,sg,3,d,0,0'>
1.2	सांसद	NN	<fs posn='20' name='sAMsaxa' af='सांसद,n,m,pl,3,d,0,0'>
	))
2	((	NP	<fs posn='30' head='नारे' semprop='rest' af='नारा,n,m,pl,3,d,0,0' drel='k2:VGF' name='NP2'>
2.1	नारे	NN	<fs posn='30' name='nAre' af='नारा,n,m,pl,3,d,0,0'>
	))
3	((	VGF	<fs posn='40' head='लगा' name='VGF' af='लगा,v,m,pl,any,,0_रह+या_था,0' drel='nmod__relc:NP3' voicetype='active' vpos='tam1_2_3' stype='declarative'>
3.1	लगा	VM	<fs posn='40' name='lagA' af='लगा,v,any,any,any,,0,0'>
3.2	-	SYM	<fs posn='70' name='-' af='-,punc,,,,,,'>
	))
4	((	NP	<fs posn='90' head='चोर' semprop='rest' af='चोर,n,m,sg,3,d,0,0' drel='k1:VGF2' name='NP3'>
4.1	चारा	NNC	<fs posn='80' name='cArA' af='चारा,n,m,sg,3,d,0,0'>
4.2	चोर	NN	<fs posn='90' name='cora' af='चोर,n,m,sg,3,d,0,0'>
4.3	,	SYM	<fs posn='100' name=',' af=',punc,,,,,,'>
	))
5	((	NP	<fs posn='120' head='चोर2' semprop='rest' af='चोर,n,m,sg,3,d,0,0' drel='k7p:VGF2' name='NP4'>
5.1	खजाना	NNC	<fs posn='110' name='KajAnA' af='खजाना,n,m,sg,3,d,0,0'>
5.2	चोर	NN	<fs posn='120' name='cora2' af='चोर,n,m,sg,3,d,0,0'>
5.3	,	SYM	<fs posn='130' name=',2' af=',punc,,,,,,'>
	))
6	((	NP	<fs posn='140' head='गद्दी' semprop='rest' af='गद्दी,n,f,sg,3,d,0,0' drel='k2:VGF2' name='NP5'>
6.1	गद्दी	NN	<fs posn='140' name='gaxxI' af='गद्दी,n,f,sg,3,d,0,0'>
	))
7	((	VGF	<fs posn='150' head='छोड़' name='VGF2' af='छोड़,v,any,any,any,,0,0' voicetype='active' stype='declarative'>
7.1	छोड़	VM	<fs posn='150' name='CodZa' af='छोड़,v,any,any,any,,0,0'>
	))
8	((	BLK	<fs posn='160' head='.' af='.,punc,,,,,,' drel='rsym:VGF2' name='BLK'>
8.1	.	SYM	<fs posn='160' name='.' af='.,punc,,,,,,'>
	))
</Sentence>

