<Sentence id='1'>
1	((	RBP	<fs posn='10' head='जहां' name='RBP' af='जहाँ,pn,,,,,,' coref=':RBP2' drel='sent-adv:VGF'>
1.1	जहां	RB	<fs posn='10' name='jahAM' af='जहाँ,pn,,,,,,'>
	))
2	((	NP	<fs posn='20' head='राज्यसभा' name='NP' af='राज्यसभा,n,f,sg,3,o,0_में,0' drel='k7p:VGF' vpos='vib1_2' semprop='rest'>
2.1	राज्यसभा	NN	<fs posn='20' name='rAjyasaBA' af='राज्यसभा,n,f,sg,3,o,0,0'>
	))
3	((	NP	<fs posn='40' head='सुबह' semprop='rest' af='सुबह,n,f,sg,3,d,0,0' drel='k7t:VGF' name='NP2'>
3.1	सुबह	NN	<fs posn='40' name='subaha' af='सुबह,n,f,sg,3,d,0,0'>
	))
4	((	NP	<fs posn='80' head='शोरशराबे' name='NP3' af='शोरशराबा,n,m,sg,3,o,0_के_बाद,0' drel='k7t:VGF' vpos='vib1_2_3' semprop='rest'>
4.1	शोरशराबे	NN	<fs posn='80' name='SoraSarAbe' af='शोरशराबा,n,m,sg,3,o,0,0'>
	))
5	((	NP	<fs posn='80' head='दिन' name='NP4' af='दिन,n,m,sg,3,o,0_के_लिए,0' drel='rt:VGF' vpos='vib1_RP_3_4' semprop='rest'>
5.1	दिन	NN	<fs posn='80' name='xina' af='दिन,n,m,sg,3,o,0,0'>
5.2	भर	RP	<fs posn='90' name='Bara' af='भर,avy,,,,,,'>
	))
6	((	NP	<fs posn='120' head='कार्यवाही' semprop='rest' af='कार्यवाही,n,f,sg,3,d,0,0' drel='k2:VGF' name='NP5'>
6.1	कार्यवाही	NN	<fs posn='120' name='kAryavAhI' af='कार्यवाही,n,f,sg,3,d,0,0'>
	))
7	((	JJP	<fs posn='130' head='स्थगित' af='स्थगित,adj,any,any,,,,' drel='pof:VGF' name='JJP'>
7.1	स्थगित	JJ	<fs posn='130' name='sWagiwa' af='स्थगित,adj,any,any,,,,'>
	))
8	((	VGF	<fs posn='140' head='कर' name='VGF' af='कर,v,f,sg,any,,0_दे+या_जा+या1,0' drel='rbmod__relc:RBP2' voicetype='active' vpos='tam1_2_3' stype='declarative'>
8.1	कर	VM	<fs posn='140' name='kara' af='कर,v,any,any,any,,0,0'>
	))
9	((	RBP	<fs posn='170' head='वहीं' af='वहीं,pn,,,,,,' drel='sent-adv:VGF2' name='RBP2'>
9.1	वहीं	RB	<fs posn='170' name='vahIM' af='वहीं,pn,,,,,,'>
	))
10	((	NP	<fs posn='180' head='लोकसभा' name='NP6' af='लोकसभा,n,f,sg,3,o,0_में,0' drel='k7:VGF2' vpos='vib1_2' semprop='rest'>
10.1	लोकसभा	NN	<fs posn='180' name='lokasaBA' af='लोकसभा,n,f,sg,3,o,0,0'>
	))
11	((	NP	<fs posn='210' head='बार' semprop='rest' af='बार,n,f,sg,3,d,0,0' drel='k7t:VGF2' name='NP7'>
11.1	दो	QC	<fs posn='200' name='xo' af='दो,num,any,any,,any,,'>
11.2	बार	NN	<fs posn='210' name='bAra' af='बार,n,f,sg,3,d,0,0'>
	))
12	((	NP	<fs posn='220' head='ऐसा' semprop='rest' af='ऐसा,pn,m,sg,any,d,0,0' drel='adv:VGF2' name='NP8'>
12.1	ऐसा	PRP	<fs posn='220' name='EsA' af='ऐसा,pn,m,sg,any,d,0,0'>
	))
13	((	VGF	<fs posn='230' head='करना' name='VGF2' af='कर,v,m,sg,any,,ना_पड़+या,nA' voicetype='active' vpos='tam1_2' stype='declarative'>
13.1	करना	VM	<fs posn='230' name='karanA' af='कर,v,m,sg,any,,ना,nA'>
	))
14	((	BLK	<fs posn='250' head='.' af='.,punc,,,,,,' drel='rsym:VGF2' name='BLK'>
14.1	.	SYM	<fs posn='250' name='.' af='.,punc,,,,,,'>
	))
</Sentence>

